%YAML 1.1
%TAG !u! tag:unity3d.com,2011:
--- !u!114 &11400000
MonoBehaviour:
  m_ObjectHideFlags: 0
  m_PrefabParentObject: {fileID: 0}
  m_PrefabInternal: {fileID: 0}
  m_GameObject: {fileID: 0}
  m_Enabled: 1
  m_EditorHideFlags: 0
  m_Script: {fileID: 11500000, guid: 21f4b37db781ec04ebd395a6b79ab50f, type: 3}
  m_Name: DesignerTile2
  m_EditorClassIdentifier: 
  Image: {fileID: 2800000, guid: a2e01fda7b5434404acdbe4e42cd77ac, type: 3}
  Heading: Fancy tile 1
